^D:\GC2A04\CPP_KADAI\課題２\RELEASE\MAIN.OBJ|D:\GC2A04\CPP_KADAI\課題２\RELEASE\TRIANGLECLASS.OBJ
/OUT:"D:\GC2A04\CPP_KADAI\課題２\RELEASE\課題２.EXE" /INCREMENTAL:NO /NOLOGO KERNEL32.LIB USER32.LIB GDI32.LIB WINSPOOL.LIB COMDLG32.LIB ADVAPI32.LIB SHELL32.LIB OLE32.LIB OLEAUT32.LIB UUID.LIB ODBC32.LIB ODBCCP32.LIB /MANIFEST /MANIFESTUAC:"level='asInvoker' uiAccess='false'" /manifest:embed /DEBUG /PDB:"D:\GC2A04\CPP_KADAI\課題２\RELEASE\課題２.PDB" /SUBSYSTEM:CONSOLE /OPT:REF /OPT:ICF /LTCG:incremental /LTCGOUT:"RELEASE\課題２.IOBJ" /TLBID:1 /DYNAMICBASE /NXCOMPAT /IMPLIB:"D:\GC2A04\CPP_KADAI\課題２\RELEASE\課題２.LIB" /MACHINE:X86 /SAFESEH RELEASE\MAIN.OBJ
RELEASE\TRIANGLECLASS.OBJ
