^D:\C++課題\CPP_KADAI\課題２\MAIN.CPP|D:\C++課題\CPP_KADAI\課題２\TRIANGLECLASS.CPP
D:\C++課題\CPP_KADAI\課題２\DEBUG\VC142.PDB
D:\C++課題\CPP_KADAI\課題２\DEBUG\VC142.IDB
D:\C++課題\CPP_KADAI\課題２\DEBUG\TRIANGLECLASS.OBJ
D:\C++課題\CPP_KADAI\課題２\DEBUG\MAIN.OBJ
^D:\C++課題\CPP_KADAI\課題２\MAIN.CPP
D:\C++課題\CPP_KADAI\課題２\DEBUG\VC142.PDB
^D:\C++課題\CPP_KADAI\課題２\TRIANGLECLASS.CPP
D:\C++課題\CPP_KADAI\課題２\DEBUG\VC142.PDB
^D:\GC2A04\CPP_KADAI\課題２\MAIN.CPP|D:\GC2A04\CPP_KADAI\課題２\TRIANGLECLASS.CPP
D:\GC2A04\CPP_KADAI\課題２\DEBUG\VC142.PDB
D:\GC2A04\CPP_KADAI\課題２\DEBUG\VC142.IDB
D:\GC2A04\CPP_KADAI\課題２\DEBUG\TRIANGLECLASS.OBJ
D:\GC2A04\CPP_KADAI\課題２\DEBUG\MAIN.OBJ
^D:\GC2A04\CPP_KADAI\課題２\MAIN.CPP
D:\GC2A04\CPP_KADAI\課題２\DEBUG\VC142.PDB
^D:\GC2A04\CPP_KADAI\課題２\TRIANGLECLASS.CPP
D:\GC2A04\CPP_KADAI\課題２\DEBUG\VC142.PDB
