^D:\GC2A04\C＋＋\CPP_KADAI\課題\X64\DEBUG\MAIN.OBJ|D:\GC2A04\C＋＋\CPP_KADAI\課題\X64\DEBUG\SAMPLE.OBJ
D:\GC2A04\C＋＋\CPP_KADAI\X64\DEBUG\課題.ILK
D:\GC2A04\C＋＋\CPP_KADAI\X64\DEBUG\課題.EXE
D:\GC2A04\C＋＋\CPP_KADAI\X64\DEBUG\課題.PDB
