^D:\C++課題\CPP_KADAI\課題９\MAIN.CPP|D:\C++課題\CPP_KADAI\課題９\SAMPLE.CPP
D:\C++課題\CPP_KADAI\課題９\DEBUG\VC142.PDB
D:\C++課題\CPP_KADAI\課題９\DEBUG\VC142.IDB
D:\C++課題\CPP_KADAI\課題９\DEBUG\SAMPLE.OBJ
^D:\C++課題\CPP_KADAI\課題９\SAMPLE.CPP
D:\C++課題\CPP_KADAI\課題９\DEBUG\SAMPLE.OBJ
^D:\C++課題\CPP_KADAI\課題９\MAIN.CPP
D:\C++課題\CPP_KADAI\課題９\DEBUG\VC142.PDB
D:\C++課題\CPP_KADAI\課題９\DEBUG\VC142.IDB
D:\C++課題\CPP_KADAI\課題９\DEBUG\MAIN.OBJ
