^D:\GC2A04\C＋＋\CPP_KADAI\課題15\MAIN.CPP|D:\GC2A04\C＋＋\CPP_KADAI\課題15\SAMPLE.CPP|D:\GC2A04\C＋＋\CPP_KADAI\課題15\SUB.CPP
D:\GC2A04\C＋＋\CPP_KADAI\課題15\DEBUG\VC142.PDB
D:\GC2A04\C＋＋\CPP_KADAI\課題15\DEBUG\VC142.IDB
D:\GC2A04\C＋＋\CPP_KADAI\課題15\DEBUG\SUB.OBJ
D:\GC2A04\C＋＋\CPP_KADAI\課題15\DEBUG\SAMPLE.OBJ
D:\GC2A04\C＋＋\CPP_KADAI\課題15\DEBUG\MAIN.OBJ
^D:\GC2A04\C＋＋\CPP_KADAI\課題15\MAIN.CPP
D:\GC2A04\C＋＋\CPP_KADAI\課題15\DEBUG\VC142.PDB
^D:\GC2A04\C＋＋\CPP_KADAI\課題15\SAMPLE.CPP
D:\GC2A04\C＋＋\CPP_KADAI\課題15\DEBUG\VC142.PDB
^D:\GC2A04\C＋＋\CPP_KADAI\課題15\SUB.CPP
D:\GC2A04\C＋＋\CPP_KADAI\課題15\DEBUG\VC142.PDB
