^D:\GC2A04\C＋＋\CPP_KADAI\課題９\X64\DEBUG\MAIN.OBJ|D:\GC2A04\C＋＋\CPP_KADAI\課題９\X64\DEBUG\SAMPLE.OBJ
D:\GC2A04\C＋＋\CPP_KADAI\X64\DEBUG\課題９.ILK
D:\GC2A04\C＋＋\CPP_KADAI\X64\DEBUG\課題９.EXE
D:\GC2A04\C＋＋\CPP_KADAI\X64\DEBUG\課題９.PDB
