^D:\GC2A04\C＋＋\CPP_KADAI\課題２\X64\DEBUG\MAIN.OBJ|D:\GC2A04\C＋＋\CPP_KADAI\課題２\X64\DEBUG\TRIANGLECLASS.OBJ
D:\GC2A04\C＋＋\CPP_KADAI\X64\DEBUG\課題２.ILK
D:\GC2A04\C＋＋\CPP_KADAI\X64\DEBUG\課題２.EXE
D:\GC2A04\C＋＋\CPP_KADAI\X64\DEBUG\課題２.PDB
