^D:\GC2A04\C＋＋\CPP_KADAI\課題４\MAIN.CPP|D:\GC2A04\C＋＋\CPP_KADAI\課題４\SAMPLE.CPP
D:\GC2A04\C＋＋\CPP_KADAI\課題４\X64\DEBUG\VC142.PDB
D:\GC2A04\C＋＋\CPP_KADAI\課題４\X64\DEBUG\VC142.IDB
D:\GC2A04\C＋＋\CPP_KADAI\課題４\X64\DEBUG\SAMPLE.OBJ
D:\GC2A04\C＋＋\CPP_KADAI\課題４\X64\DEBUG\MAIN.OBJ
^D:\GC2A04\C＋＋\CPP_KADAI\課題４\MAIN.CPP
D:\GC2A04\C＋＋\CPP_KADAI\課題４\X64\DEBUG\VC142.PDB
^D:\GC2A04\C＋＋\CPP_KADAI\課題４\SAMPLE.CPP
D:\GC2A04\C＋＋\CPP_KADAI\課題４\X64\DEBUG\VC142.PDB
